{
  "project_info": {
    "project_number": "504099563326",
    "project_id": "monygol",
    "storage_bucket": "monygol.appspot.com"
  },
  "client": [
    {
      "client_info": {
        "mobilesdk_app_id": "1:504099563326:android:b3f7c00f59639847812e6f",
        "android_client_info": {
          "package_name": "com.plateado.pregol.ghuidobro.pregol"
        }
      },
      "oauth_client": [
        {
          "client_id": "504099563326-fsbacoutd2gtqqocauj462h5k8oi823p.apps.googleusercontent.com",
          "client_type": 1,
          "android_info": {
            "package_name": "com.plateado.pregol.ghuidobro.pregol",
            "certificate_hash": "1b96f3da5565405cf0ad7311634b8b833e70431c"
          }
        },
        {
          "client_id": "504099563326-91vorte7h7naeeh5ugu19ukdggp0mtsa.apps.googleusercontent.com",
          "client_type": 3
        }
      ],
      "api_key": [
        {
          "current_key": "AIzaSyBMQAvAAjygrvaCROSdDFD9a02lqCNfx7g"
        }
      ],
      "services": {
        "appinvite_service": {
          "other_platform_oauth_client": [
            {
              "client_id": "504099563326-91vorte7h7naeeh5ugu19ukdggp0mtsa.apps.googleusercontent.com",
              "client_type": 3
            }
          ]
        }
      }
    }
  ],
  "configuration_version": "1"
}